…
## $ year                 <dbl> 2021, 2021, 2021, 2021, 2021, 2021, 2020, 2020, 2…
## $ month                <chr> "Nov", "May", "Apr", "Mar", "Mar", "Mar", "Mar", …
## $ day                  <dbl> 30, 26, 15, 31, 22, 16, 16, 26, 10, 6, 31, 4, 3, …
## $ location             <chr> "Oxford, Michigan", "San Jose, California", "Indi…
## $ summary              <chr> "Ethan Crumbley, a 15-year-old student at Oxford …
## $ fatalities           <dbl> 4, 9, 8, 4, 10, 8, 4, 5, 4, 3, 7, 9, 22, 3, 12, 5…
## $ injured              <dbl> 7, 0, 7, 1, 0, 1, 0, 0, 3, 8, 25, 27, 26, 12, 4, …
## $ total_victims        <dbl> 11, 9, 15, 5, 10, 9, 4, 5, 7, 11, 32, 36, 48, 15,…
## $ location_type        <chr> "School", "Workplace", "Workplace", "Workplace", …
## $ male                 <lgl> TRUE, TRUE, TRUE, TRUE, TRUE, TRUE, TRUE, TRUE, T…
## $ age_of_shooter       <dbl> 15, 57, 19, NA, 21, 21, 31, 51, NA, NA, 36, 24, 2…
## $ race                 <chr> NA, NA, "White", NA, NA, "White", NA, "Black", "B…
## $ prior_mental_illness <chr> NA, "Yes", "Yes", NA, "Yes", NA, NA, NA, NA, NA, …

## # A tibble: 125 × 14
##    case       year month   day location summary fatalities injured total_victims
##    <chr>     <dbl> <chr> <dbl> <chr>    <chr>        <dbl>   <dbl>         <dbl>
##  1 Oxford H…  2021 Nov      30 Oxford,… "Ethan…          4       7            11
##  2 San Jose…  2021 May      26 San Jos… "Samue…          9       0             9
##  3 FedEx wa…  2021 Apr      15 Indiana… "Brand…          8       7            15
##  4 Orange o…  2021 Mar      31 Orange,… "Amina…          4       1             5
##  5 Boulder …  2021 Mar      22 Boulder… "Ahmad…         10       0            10
##  6 Atlanta …  2021 Mar      16 Atlanta… "Rober…          8       1             9
##  7 Springfi…  2020 Mar      16 Springf… "Joaqu…          4       0             4
##  8 Molson C…  2020 Feb      26 Milwauk… "Antho…          5       0             5
##  9 Jersey C…  2019 Dec      10 Jersey … "David…          4       3             7
## 10 Pensacol…  2019 Dec       6 Pensaco… "Ahmed…          3       8            11
## # ℹ 115 more rows
## # ℹ 5 more variables: location_type <chr>, male <lgl>, age_of_shooter <dbl>,
## #   race <chr>, prior_mental_illness <chr>
…
Explore the data

Specific questions

Generate a data frame that summarizes the number of mass shootings per year.

shootings_per_year <- mass_shootings %>% 
  
  group_by(year) %>% #grouping for summary calculations
  
  summarise(shootings_per_year = n())

shootings_per_year

## # A tibble: 37 × 2
##     year shootings_per_year
##    <dbl>              <int>
##  1  1982                  1
##  2  1984                  2
##  3  1986                  1
##  4  1987                  1
##  5  1988                  1
##  6  1989                  2
##  7  1990                  1
##  8  1991                  3
##  9  1992                  2
## 10  1993                  4
## # ℹ 27 more rows
…
From the skim we can see that the new dataframe contains 23 rows and therefore 23 white males with prior signs of mental illness initiated a mass shooting after 2000.

Which month of the year has the most mass shootings? Generate a bar chart sorted in chronological (natural) order (Jan-Feb-Mar- etc) to provide evidence of your answer.

#changing the factor levels of the data
shootings_per_month <- mass_shootings %>% 
  
  group_by(month) %>% 
  
  mutate(month = factor(month, levels = c("Jan","Feb","Mar","Apr","May","Jun","Jul","Aug","Sep","Oct","Nov","Dec"))) #setting factor levels for the correct order

shootings_per_month

## # A tibble: 125 × 14
## # Groups:   month [12]
##    case       year month   day location summary fatalities injured total_victims
##    <chr>     <dbl> <fct> <dbl> <chr>    <chr>        <dbl>   <dbl>         <dbl>
##  1 Oxford H…  2021 Nov      30 Oxford,… "Ethan…          4       7            11
##  2 San Jose…  2021 May      26 San Jos… "Samue…          9       0             9
##  3 FedEx wa…  2021 Apr      15 Indiana… "Brand…          8       7            15
##  4 Orange o…  2021 Mar      31 Orange,… "Amina…          4       1             5
##  5 Boulder …  2021 Mar      22 Boulder… "Ahmad…         10       0            10
##  6 Atlanta …  2021 Mar      16 Atlanta… "Rober…          8       1             9
##  7 Springfi…  2020 Mar      16 Springf… "Joaqu…          4       0             4
##  8 Molson C…  2020 Feb      26 Milwauk… "Antho…          5       0             5
##  9 Jersey C…  2019 Dec      10 Jersey … "David…          4       3             7
## 10 Pensacol…  2019 Dec       6 Pensaco… "Ahmed…          3       8            11
## # ℹ 115 more rows
## # ℹ 5 more variables: location_type <chr>, male <lgl>, age_of_shooter <dbl>,
## #   race <chr>, prior_mental_illness <chr>
…
